lab2/SRAM.vcd
$date
	Sun Apr 17 19:52:36 2016
$end
$version
	Icarus Verilog
$end
$timescale
	1s
$end
$scope module sramTop $end
$scope module test $end
$var wire 16 ! data [15:0] $end
$var wire 16 " mdrSRAM [15:0] $end
$var wire 11 # sramAddr [10:0] $end
$var reg 11 $ addr [10:0] $end
$var reg 1 % clock $end
$var reg 1 & nOutput $end
$var reg 1 ' nWrite $end
$var reg 16 ( writeData [15:0] $end
$var integer 32 ) i [31:0] $end
$upscope $end
$upscope $end
$enddefinitions $end
#0
$dumpvars
b0 )
b0 (
0'
1&
0%
b0 $
bx #
bx "
b0 !
$end
#200
b0 "
b0 #
1%
#401
b1 )
0%
#601
b1 !
b1 (
1%
#602
b1 $
#802
b10 )
0%
#1002
b1 "
b1 #
b10 !
b10 (
1%
#1003
b10 $
#1203
b11 )
0%
#1403
b10 "
b10 #
b11 !
b11 (
1%
#1404
b11 $
#1604
b100 )
0%
#1804
b11 "
b11 #
b100 !
b100 (
1%
#1805
b100 $
#2005
b101 )
0%
#2205
b100 "
b100 #
b101 !
b101 (
1%
#2206
b101 $
#2406
b110 )
0%
#2606
b101 "
b101 #
b110 !
b110 (
1%
#2607
b110 $
#2807
b111 )
0%
#3007
b110 "
b110 #
b111 !
b111 (
1%
#3008
b111 $
#3208
b1000 )
0%
#3408
b111 "
b111 #
b1000 !
b1000 (
1%
#3409
b1000 $
#3609
b1001 )
0%
#3809
b1000 "
b1000 #
b1001 !
b1001 (
1%
#3810
b1001 $
#4010
b1010 )
0%
#4210
b1001 "
b1001 #
b1010 !
b1010 (
1%
#4211
b1010 $
#4411
b1011 )
0%
#4611
b1010 "
b1010 #
b1011 !
b1011 (
1%
#4612
b1011 $
#4812
b1100 )
0%
#5012
b1011 "
b1011 #
b1100 !
b1100 (
1%
#5013
b1100 $
#5213
b1101 )
0%
#5413
b1100 "
b1100 #
b1101 !
b1101 (
1%
#5414
b1101 $
#5614
b1110 )
0%
#5814
b1101 "
b1101 #
b1110 !
b1110 (
1%
#5815
b1110 $
#6015
b1111 )
0%
#6215
b1110 "
b1110 #
b1111 !
b1111 (
1%
#6216
b1111 $
#6416
b10000 )
0%
#6616
b1111 "
b1111 #
b10000 !
b10000 (
1%
#6617
b10000 $
#6817
b10001 )
0%
#7017
b10000 "
b10000 #
b10001 !
b10001 (
1%
#7018
b10001 $
#7218
b10010 )
0%
#7418
b10001 "
b10001 #
b10010 !
b10010 (
1%
#7419
b10010 $
#7619
b10011 )
0%
#7819
b10010 "
b10010 #
b10011 !
b10011 (
1%
#7820
b10011 $
#8020
b10100 )
0%
#8220
b10011 "
b10011 #
b10100 !
b10100 (
1%
#8221
b10100 $
#8421
b10101 )
0%
#8621
b10100 "
b10100 #
b10101 !
b10101 (
1%
#8622
b10101 $
#8822
b10110 )
0%
#9022
b10101 "
b10101 #
b10110 !
b10110 (
1%
#9023
b10110 $
#9223
b10111 )
0%
#9423
b10110 "
b10110 #
b10111 !
b10111 (
1%
#9424
b10111 $
#9624
b11000 )
0%
#9824
b10111 "
b10111 #
b11000 !
b11000 (
1%
#9825
b11000 $
#10025
b11001 )
0%
#10225
b11000 "
b11000 #
b11001 !
b11001 (
1%
#10226
b11001 $
#10426
b11010 )
0%
#10626
b11001 "
b11001 #
b11010 !
b11010 (
1%
#10627
b11010 $
#10827
b11011 )
0%
#11027
b11010 "
b11010 #
b11011 !
b11011 (
1%
#11028
b11011 $
#11228
b11100 )
0%
#11428
b11011 "
b11011 #
b11100 !
b11100 (
1%
#11429
b11100 $
#11629
b11101 )
0%
#11829
b11100 "
b11100 #
b11101 !
b11101 (
1%
#11830
b11101 $
#12030
b11110 )
0%
#12230
b11101 "
b11101 #
b11110 !
b11110 (
1%
#12231
b11110 $
#12431
b11111 )
0%
#12631
b11110 "
b11110 #
b11111 !
b11111 (
1%
#12632
b11111 $
#12832
b100000 )
0%
#13032
b11111 "
b11111 #
b100000 !
b100000 (
1%
#13033
b100000 $
#13233
b100001 )
0%
#13433
b100000 "
b100000 #
b100001 !
b100001 (
1%
#13434
b100001 $
#13634
b100010 )
0%
#13834
b100001 "
b100001 #
b100010 !
b100010 (
1%
#13835
b100010 $
#14035
b100011 )
0%
#14235
b100010 "
b100010 #
b100011 !
b100011 (
1%
#14236
b100011 $
#14436
b100100 )
0%
#14636
b100011 "
b100011 #
b100100 !
b100100 (
1%
#14637
b100100 $
#14837
b100101 )
0%
#15037
b100100 "
b100100 #
b100101 !
b100101 (
1%
#15038
b100101 $
#15238
b100110 )
0%
#15438
b100101 "
b100101 #
b100110 !
b100110 (
1%
#15439
b100110 $
#15639
b100111 )
0%
#15839
b100110 "
b100110 #
b100111 !
b100111 (
1%
#15840
b100111 $
#16040
b101000 )
0%
#16240
b100111 "
b100111 #
b101000 !
b101000 (
1%
#16241
b101000 $
#16441
b101001 )
0%
#16641
b101000 "
b101000 #
b101001 !
b101001 (
1%
#16642
b101001 $
#16842
b101010 )
0%
#17042
b101001 "
b101001 #
b101010 !
b101010 (
1%
#17043
b101010 $
#17243
b101011 )
0%
#17443
b101010 "
b101010 #
b101011 !
b101011 (
1%
#17444
b101011 $
#17644
b101100 )
0%
#17844
b101011 "
b101011 #
b101100 !
b101100 (
1%
#17845
b101100 $
#18045
b101101 )
0%
#18245
b101100 "
b101100 #
b101101 !
b101101 (
1%
#18246
b101101 $
#18446
b101110 )
0%
#18646
b101101 "
b101101 #
b101110 !
b101110 (
1%
#18647
b101110 $
#18847
b101111 )
0%
#19047
b101110 "
b101110 #
b101111 !
b101111 (
1%
#19048
b101111 $
#19248
b110000 )
0%
#19448
b101111 "
b101111 #
b110000 !
b110000 (
1%
#19449
b110000 $
#19649
b110001 )
0%
#19849
b110000 "
b110000 #
b110001 !
b110001 (
1%
#19850
b110001 $
#20050
b110010 )
0%
#20250
b110001 "
b110001 #
b110010 !
b110010 (
1%
#20251
b110010 $
#20451
b110011 )
0%
#20651
b110010 "
b110010 #
b110011 !
b110011 (
1%
#20652
b110011 $
#20852
b110100 )
0%
#21052
b110011 "
b110011 #
b110100 !
b110100 (
1%
#21053
b110100 $
#21253
b110101 )
0%
#21453
b110100 "
b110100 #
b110101 !
b110101 (
1%
#21454
b110101 $
#21654
b110110 )
0%
#21854
b110101 "
b110101 #
b110110 !
b110110 (
1%
#21855
b110110 $
#22055
b110111 )
0%
#22255
b110110 "
b110110 #
b110111 !
b110111 (
1%
#22256
b110111 $
#22456
b111000 )
0%
#22656
b110111 "
b110111 #
b111000 !
b111000 (
1%
#22657
b111000 $
#22857
b111001 )
0%
#23057
b111000 "
b111000 #
b111001 !
b111001 (
1%
#23058
b111001 $
#23258
b111010 )
0%
#23458
b111001 "
b111001 #
b111010 !
b111010 (
1%
#23459
b111010 $
#23659
b111011 )
0%
#23859
b111010 "
b111010 #
b111011 !
b111011 (
1%
#23860
b111011 $
#24060
b111100 )
0%
#24260
b111011 "
b111011 #
b111100 !
b111100 (
1%
#24261
b111100 $
#24461
b111101 )
0%
#24661
b111100 "
b111100 #
b111101 !
b111101 (
1%
#24662
b111101 $
#24862
b111110 )
0%
#25062
b111101 "
b111101 #
b111110 !
b111110 (
1%
#25063
b111110 $
#25263
b111111 )
0%
#25463
b111110 "
b111110 #
b111111 !
b111111 (
1%
#25464
b111111 $
#25664
b1000000 )
0%
#25864
b111111 "
b111111 #
b1000000 !
b1000000 (
1%
#25865
b1000000 $
#26065
b1000001 )
0%
#26265
b1000000 "
b1000000 #
b1000001 !
b1000001 (
1%
#26266
b1000001 $
#26466
b1000010 )
0%
#26666
b1000001 "
b1000001 #
b1000010 !
b1000010 (
1%
#26667
b1000010 $
#26867
b1000011 )
0%
#27067
b1000010 "
b1000010 #
b1000011 !
b1000011 (
1%
#27068
b1000011 $
#27268
b1000100 )
0%
#27468
b1000011 "
b1000011 #
b1000100 !
b1000100 (
1%
#27469
b1000100 $
#27669
b1000101 )
0%
#27869
b1000100 "
b1000100 #
b1000101 !
b1000101 (
1%
#27870
b1000101 $
#28070
b1000110 )
0%
#28270
b1000101 "
b1000101 #
b1000110 !
b1000110 (
1%
#28271
b1000110 $
#28471
b1000111 )
0%
#28671
b1000110 "
b1000110 #
b1000111 !
b1000111 (
1%
#28672
b1000111 $
#28872
b1001000 )
0%
#29072
b1000111 "
b1000111 #
b1001000 !
b1001000 (
1%
#29073
b1001000 $
#29273
b1001001 )
0%
#29473
b1001000 "
b1001000 #
b1001001 !
b1001001 (
1%
#29474
b1001001 $
#29674
b1001010 )
0%
#29874
b1001001 "
b1001001 #
b1001010 !
b1001010 (
1%
#29875
b1001010 $
#30075
b1001011 )
0%
#30275
b1001010 "
b1001010 #
b1001011 !
b1001011 (
1%
#30276
b1001011 $
#30476
b1001100 )
0%
#30676
b1001011 "
b1001011 #
b1001100 !
b1001100 (
1%
#30677
b1001100 $
#30877
b1001101 )
0%
#31077
b1001100 "
b1001100 #
b1001101 !
b1001101 (
1%
#31078
b1001101 $
#31278
b1001110 )
0%
#31478
b1001101 "
b1001101 #
b1001110 !
b1001110 (
1%
#31479
b1001110 $
#31679
b1001111 )
0%
#31879
b1001110 "
b1001110 #
b1001111 !
b1001111 (
1%
#31880
b1001111 $
#32080
b1010000 )
0%
#32280
b1001111 "
b1001111 #
b1010000 !
b1010000 (
1%
#32281
b1010000 $
#32481
b1010001 )
0%
#32681
b1010000 "
b1010000 #
b1010001 !
b1010001 (
1%
#32682
b1010001 $
#32882
b1010010 )
0%
#33082
b1010001 "
b1010001 #
b1010010 !
b1010010 (
1%
#33083
b1010010 $
#33283
b1010011 )
0%
#33483
b1010010 "
b1010010 #
b1010011 !
b1010011 (
1%
#33484
b1010011 $
#33684
b1010100 )
0%
#33884
b1010011 "
b1010011 #
b1010100 !
b1010100 (
1%
#33885
b1010100 $
#34085
b1010101 )
0%
#34285
b1010100 "
b1010100 #
b1010101 !
b1010101 (
1%
#34286
b1010101 $
#34486
b1010110 )
0%
#34686
b1010101 "
b1010101 #
b1010110 !
b1010110 (
1%
#34687
b1010110 $
#34887
b1010111 )
0%
#35087
b1010110 "
b1010110 #
b1010111 !
b1010111 (
1%
#35088
b1010111 $
#35288
b1011000 )
0%
#35488
b1010111 "
b1010111 #
b1011000 !
b1011000 (
1%
#35489
b1011000 $
#35689
b1011001 )
0%
#35889
b1011000 "
b1011000 #
b1011001 !
b1011001 (
1%
#35890
b1011001 $
#36090
b1011010 )
0%
#36290
b1011001 "
b1011001 #
b1011010 !
b1011010 (
1%
#36291
b1011010 $
#36491
b1011011 )
0%
#36691
b1011010 "
b1011010 #
b1011011 !
b1011011 (
1%
#36692
b1011011 $
#36892
b1011100 )
0%
#37092
b1011011 "
b1011011 #
b1011100 !
b1011100 (
1%
#37093
b1011100 $
#37293
b1011101 )
0%
#37493
b1011100 "
b1011100 #
b1011101 !
b1011101 (
1%
#37494
b1011101 $
#37694
b1011110 )
0%
#37894
b1011101 "
b1011101 #
b1011110 !
b1011110 (
1%
#37895
b1011110 $
#38095
b1011111 )
0%
#38295
b1011110 "
b1011110 #
b1011111 !
b1011111 (
1%
#38296
b1011111 $
#38496
b1100000 )
0%
#38696
b1011111 "
b1011111 #
b1100000 !
b1100000 (
1%
#38697
b1100000 $
#38897
b1100001 )
0%
#39097
b1100000 "
b1100000 #
b1100001 !
b1100001 (
1%
#39098
b1100001 $
#39298
b1100010 )
0%
#39498
b1100001 "
b1100001 #
b1100010 !
b1100010 (
1%
#39499
b1100010 $
#39699
b1100011 )
0%
#39899
b1100010 "
b1100010 #
b1100011 !
b1100011 (
1%
#39900
b1100011 $
#40100
b1100100 )
0%
#40300
b1100011 "
b1100011 #
b1100100 !
b1100100 (
1%
#40301
b1100100 $
#40501
b1100101 )
0%
#40701
b1100100 "
b1100100 #
b1100101 !
b1100101 (
1%
#40702
b1100101 $
#40902
b1100110 )
0%
#41102
b1100101 "
b1100101 #
b1100110 !
b1100110 (
1%
#41103
b1100110 $
#41303
b1100111 )
0%
#41503
b1100110 "
b1100110 #
b1100111 !
b1100111 (
1%
#41504
b1100111 $
#41704
b1101000 )
0%
#41904
b1100111 "
b1100111 #
b1101000 !
b1101000 (
1%
#41905
b1101000 $
#42105
b1101001 )
0%
#42305
b1101000 "
b1101000 #
b1101001 !
b1101001 (
1%
#42306
b1101001 $
#42506
b1101010 )
0%
#42706
b1101001 "
b1101001 #
b1101010 !
b1101010 (
1%
#42707
b1101010 $
#42907
b1101011 )
0%
#43107
b1101010 "
b1101010 #
b1101011 !
b1101011 (
1%
#43108
b1101011 $
#43308
b1101100 )
0%
#43508
b1101011 "
b1101011 #
b1101100 !
b1101100 (
1%
#43509
b1101100 $
#43709
b1101101 )
0%
#43909
b1101100 "
b1101100 #
b1101101 !
b1101101 (
1%
#43910
b1101101 $
#44110
b1101110 )
0%
#44310
b1101101 "
b1101101 #
b1101110 !
b1101110 (
1%
#44311
b1101110 $
#44511
b1101111 )
0%
#44711
b1101110 "
b1101110 #
b1101111 !
b1101111 (
1%
#44712
b1101111 $
#44912
b1110000 )
0%
#45112
b1101111 "
b1101111 #
b1110000 !
b1110000 (
1%
#45113
b1110000 $
#45313
b1110001 )
0%
#45513
b1110000 "
b1110000 #
b1110001 !
b1110001 (
1%
#45514
b1110001 $
#45714
b1110010 )
0%
#45914
b1110001 "
b1110001 #
b1110010 !
b1110010 (
1%
#45915
b1110010 $
#46115
b1110011 )
0%
#46315
b1110010 "
b1110010 #
b1110011 !
b1110011 (
1%
#46316
b1110011 $
#46516
b1110100 )
0%
#46716
b1110011 "
b1110011 #
b1110100 !
b1110100 (
1%
#46717
b1110100 $
#46917
b1110101 )
0%
#47117
b1110100 "
b1110100 #
b1110101 !
b1110101 (
1%
#47118
b1110101 $
#47318
b1110110 )
0%
#47518
b1110101 "
b1110101 #
b1110110 !
b1110110 (
1%
#47519
b1110110 $
#47719
b1110111 )
0%
#47919
b1110110 "
b1110110 #
b1110111 !
b1110111 (
1%
#47920
b1110111 $
#48120
b1111000 )
0%
#48320
b1110111 "
b1110111 #
b1111000 !
b1111000 (
1%
#48321
b1111000 $
#48521
b1111001 )
0%
#48721
b1111000 "
b1111000 #
b1111001 !
b1111001 (
1%
#48722
b1111001 $
#48922
b1111010 )
0%
#49122
b1111001 "
b1111001 #
b1111010 !
b1111010 (
1%
#49123
b1111010 $
#49323
b1111011 )
0%
#49523
b1111010 "
b1111010 #
b1111011 !
b1111011 (
1%
#49524
b1111011 $
#49724
b1111100 )
0%
#49924
b1111011 "
b1111011 #
b1111100 !
b1111100 (
1%
#49925
b1111100 $
#50125
b1111101 )
0%
#50325
b1111100 "
b1111100 #
b1111101 !
b1111101 (
1%
#50326
b1111101 $
#50526
b1111110 )
0%
#50726
b1111101 "
b1111101 #
b1111110 !
b1111110 (
1%
#50727
b1111110 $
#50927
b1111111 )
0%
#51127
b1111110 "
b1111110 #
b1111111 !
b1111111 (
1%
#51128
b1111111 $
#51328
b0 )
0%
#51528
b1111111 "
b1111111 #
b1 )
1%
#51728
b10 )
0%
#51928
b11 )
1%
#52128
b100 )
0%
#52328
b101 )
1%
#52528
b110 )
0%
#52728
b111 )
1%
#52928
b1000 )
0%
#53128
b1001 )
1%
#53328
b1010 )
0%
#53528
b1011 )
1%
#53728
b1100 )
0%
#53928
b1101 )
1%
#54128
b1110 )
0%
#54328
b1111 )
1%
#54528
b1111111 "
b0 $
1'
0&
b0 )
0%
#54728
b0 "
b0 #
1%
#54928
b1 $
b1 )
0%
#55128
b1 "
b0 !
b1 #
1%
#55328
b10 $
b10 )
0%
#55528
b1 !
b10 "
b10 #
1%
#55728
b11 $
b11 )
0%
#55928
b11 "
b10 !
b11 #
1%
#56128
b100 $
b100 )
0%
#56328
b11 !
b100 "
b100 #
1%
#56528
b101 $
b101 )
0%
#56728
b101 "
b100 !
b101 #
1%
#56928
b110 $
b110 )
0%
#57128
b101 !
b110 "
b110 #
1%
#57328
b111 $
b111 )
0%
#57528
b111 "
b110 !
b111 #
1%
#57728
b1000 $
b1000 )
0%
#57928
b111 !
b1000 "
b1000 #
1%
#58128
b1001 $
b1001 )
0%
#58328
b1001 "
b1000 !
b1001 #
1%
#58528
b1010 $
b1010 )
0%
#58728
b1001 !
b1010 "
b1010 #
1%
#58928
b1011 $
b1011 )
0%
#59128
b1011 "
b1010 !
b1011 #
1%
#59328
b1100 $
b1100 )
0%
#59528
b1011 !
b1100 "
b1100 #
1%
#59728
b1101 $
b1101 )
0%
#59928
b1101 "
b1100 !
b1101 #
1%
#60128
b1110 $
b1110 )
0%
#60328
b1101 !
b1110 "
b1110 #
1%
#60528
b1111 $
b1111 )
0%
#60728
b1111 "
b1110 !
b1111 #
1%
#60928
b10000 $
b10000 )
0%
#61128
b1111 !
b10000 "
b10000 #
1%
#61328
b10001 $
b10001 )
0%
#61528
b10001 "
b10000 !
b10001 #
1%
#61728
b10010 $
b10010 )
0%
#61928
b10001 !
b10010 "
b10010 #
1%
#62128
b10011 $
b10011 )
0%
#62328
b10011 "
b10010 !
b10011 #
1%
#62528
b10100 $
b10100 )
0%
#62728
b10011 !
b10100 "
b10100 #
1%
#62928
b10101 $
b10101 )
0%
#63128
b10101 "
b10100 !
b10101 #
1%
#63328
b10110 $
b10110 )
0%
#63528
b10101 !
b10110 "
b10110 #
1%
#63728
b10111 $
b10111 )
0%
#63928
b10111 "
b10110 !
b10111 #
1%
#64128
b11000 $
b11000 )
0%
#64328
b10111 !
b11000 "
b11000 #
1%
#64528
b11001 $
b11001 )
0%
#64728
b11001 "
b11000 !
b11001 #
1%
#64928
b11010 $
b11010 )
0%
#65128
b11001 !
b11010 "
b11010 #
1%
#65328
b11011 $
b11011 )
0%
#65528
b11011 "
b11010 !
b11011 #
1%
#65728
b11100 $
b11100 )
0%
#65928
b11011 !
b11100 "
b11100 #
1%
#66128
b11101 $
b11101 )
0%
#66328
b11101 "
b11100 !
b11101 #
1%
#66528
b11110 $
b11110 )
0%
#66728
b11101 !
b11110 "
b11110 #
1%
#66928
b11111 $
b11111 )
0%
#67128
b11111 "
b11110 !
b11111 #
1%
#67328
b100000 $
b100000 )
0%
#67528
b11111 !
b100000 "
b100000 #
1%
#67728
b100001 $
b100001 )
0%
#67928
b100001 "
b100000 !
b100001 #
1%
#68128
b100010 $
b100010 )
0%
#68328
b100001 !
b100010 "
b100010 #
1%
#68528
b100011 $
b100011 )
0%
#68728
b100011 "
b100010 !
b100011 #
1%
#68928
b100100 $
b100100 )
0%
#69128
b100011 !
b100100 "
b100100 #
1%
#69328
b100101 $
b100101 )
0%
#69528
b100101 "
b100100 !
b100101 #
1%
#69728
b100110 $
b100110 )
0%
#69928
b100101 !
b100110 "
b100110 #
1%
#70128
b100111 $
b100111 )
0%
#70328
b100111 "
b100110 !
b100111 #
1%
#70528
b101000 $
b101000 )
0%
#70728
b100111 !
b101000 "
b101000 #
1%
#70928
b101001 $
b101001 )
0%
#71128
b101001 "
b101000 !
b101001 #
1%
#71328
b101010 $
b101010 )
0%
#71528
b101001 !
b101010 "
b101010 #
1%
#71728
b101011 $
b101011 )
0%
#71928
b101011 "
b101010 !
b101011 #
1%
#72128
b101100 $
b101100 )
0%
#72328
b101011 !
b101100 "
b101100 #
1%
#72528
b101101 $
b101101 )
0%
#72728
b101101 "
b101100 !
b101101 #
1%
#72928
b101110 $
b101110 )
0%
#73128
b101101 !
b101110 "
b101110 #
1%
#73328
b101111 $
b101111 )
0%
#73528
b101111 "
b101110 !
b101111 #
1%
#73728
b110000 $
b110000 )
0%
#73928
b101111 !
b110000 "
b110000 #
1%
#74128
b110001 $
b110001 )
0%
#74328
b110001 "
b110000 !
b110001 #
1%
#74528
b110010 $
b110010 )
0%
#74728
b110001 !
b110010 "
b110010 #
1%
#74928
b110011 $
b110011 )
0%
#75128
b110011 "
b110010 !
b110011 #
1%
#75328
b110100 $
b110100 )
0%
#75528
b110011 !
b110100 "
b110100 #
1%
#75728
b110101 $
b110101 )
0%
#75928
b110101 "
b110100 !
b110101 #
1%
#76128
b110110 $
b110110 )
0%
#76328
b110101 !
b110110 "
b110110 #
1%
#76528
b110111 $
b110111 )
0%
#76728
b110111 "
b110110 !
b110111 #
1%
#76928
b111000 $
b111000 )
0%
#77128
b110111 !
b111000 "
b111000 #
1%
#77328
b111001 $
b111001 )
0%
#77528
b111001 "
b111000 !
b111001 #
1%
#77728
b111010 $
b111010 )
0%
#77928
b111001 !
b111010 "
b111010 #
1%
#78128
b111011 $
b111011 )
0%
#78328
b111011 "
b111010 !
b111011 #
1%
#78528
b111100 $
b111100 )
0%
#78728
b111011 !
b111100 "
b111100 #
1%
#78928
b111101 $
b111101 )
0%
#79128
b111101 "
b111100 !
b111101 #
1%
#79328
b111110 $
b111110 )
0%
#79528
b111101 !
b111110 "
b111110 #
1%
#79728
b111111 $
b111111 )
0%
#79928
b111111 "
b111110 !
b111111 #
1%
#80128
b1000000 $
b1000000 )
0%
#80328
b111111 !
b1000000 "
b1000000 #
1%
#80528
b1000001 $
b1000001 )
0%
#80728
b1000001 "
b1000000 !
b1000001 #
1%
#80928
b1000010 $
b1000010 )
0%
#81128
b1000001 !
b1000010 "
b1000010 #
1%
#81328
b1000011 $
b1000011 )
0%
#81528
b1000011 "
b1000010 !
b1000011 #
1%
#81728
b1000100 $
b1000100 )
0%
#81928
b1000011 !
b1000100 "
b1000100 #
1%
#82128
b1000101 $
b1000101 )
0%
#82328
b1000101 "
b1000100 !
b1000101 #
1%
#82528
b1000110 $
b1000110 )
0%
#82728
b1000101 !
b1000110 "
b1000110 #
1%
#82928
b1000111 $
b1000111 )
0%
#83128
b1000111 "
b1000110 !
b1000111 #
1%
#83328
b1001000 $
b1001000 )
0%
#83528
b1000111 !
b1001000 "
b1001000 #
1%
#83728
b1001001 $
b1001001 )
0%
#83928
b1001001 "
b1001000 !
b1001001 #
1%
#84128
b1001010 $
b1001010 )
0%
#84328
b1001001 !
b1001010 "
b1001010 #
1%
#84528
b1001011 $
b1001011 )
0%
#84728
b1001011 "
b1001010 !
b1001011 #
1%
#84928
b1001100 $
b1001100 )
0%
#85128
b1001011 !
b1001100 "
b1001100 #
1%
#85328
b1001101 $
b1001101 )
0%
#85528
b1001101 "
b1001100 !
b1001101 #
1%
#85728
b1001110 $
b1001110 )
0%
#85928
b1001101 !
b1001110 "
b1001110 #
1%
#86128
b1001111 $
b1001111 )
0%
#86328
b1001111 "
b1001110 !
b1001111 #
1%
#86528
b1010000 $
b1010000 )
0%
#86728
b1001111 !
b1010000 "
b1010000 #
1%
#86928
b1010001 $
b1010001 )
0%
#87128
b1010001 "
b1010000 !
b1010001 #
1%
#87328
b1010010 $
b1010010 )
0%
#87528
b1010001 !
b1010010 "
b1010010 #
1%
#87728
b1010011 $
b1010011 )
0%
#87928
b1010011 "
b1010010 !
b1010011 #
1%
#88128
b1010100 $
b1010100 )
0%
#88328
b1010011 !
b1010100 "
b1010100 #
1%
#88528
b1010101 $
b1010101 )
0%
#88728
b1010101 "
b1010100 !
b1010101 #
1%
#88928
b1010110 $
b1010110 )
0%
#89128
b1010101 !
b1010110 "
b1010110 #
1%
#89328
b1010111 $
b1010111 )
0%
#89528
b1010111 "
b1010110 !
b1010111 #
1%
#89728
b1011000 $
b1011000 )
0%
#89928
b1010111 !
b1011000 "
b1011000 #
1%
#90128
b1011001 $
b1011001 )
0%
#90328
b1011001 "
b1011000 !
b1011001 #
1%
#90528
b1011010 $
b1011010 )
0%
#90728
b1011001 !
b1011010 "
b1011010 #
1%
#90928
b1011011 $
b1011011 )
0%
#91128
b1011011 "
b1011010 !
b1011011 #
1%
#91328
b1011100 $
b1011100 )
0%
#91528
b1011011 !
b1011100 "
b1011100 #
1%
#91728
b1011101 $
b1011101 )
0%
#91928
b1011101 "
b1011100 !
b1011101 #
1%
#92128
b1011110 $
b1011110 )
0%
#92328
b1011101 !
b1011110 "
b1011110 #
1%
#92528
b1011111 $
b1011111 )
0%
#92728
b1011111 "
b1011110 !
b1011111 #
1%
#92928
b1100000 $
b1100000 )
0%
#93128
b1011111 !
b1100000 "
b1100000 #
1%
#93328
b1100001 $
b1100001 )
0%
#93528
b1100001 "
b1100000 !
b1100001 #
1%
#93728
b1100010 $
b1100010 )
0%
#93928
b1100001 !
b1100010 "
b1100010 #
1%
#94128
b1100011 $
b1100011 )
0%
#94328
b1100011 "
b1100010 !
b1100011 #
1%
#94528
b1100100 $
b1100100 )
0%
#94728
b1100011 !
b1100100 "
b1100100 #
1%
#94928
b1100101 $
b1100101 )
0%
#95128
b1100101 "
b1100100 !
b1100101 #
1%
#95328
b1100110 $
b1100110 )
0%
#95528
b1100101 !
b1100110 "
b1100110 #
1%
#95728
b1100111 $
b1100111 )
0%
#95928
b1100111 "
b1100110 !
b1100111 #
1%
#96128
b1101000 $
b1101000 )
0%
#96328
b1100111 !
b1101000 "
b1101000 #
1%
#96528
b1101001 $
b1101001 )
0%
#96728
b1101001 "
b1101000 !
b1101001 #
1%
#96928
b1101010 $
b1101010 )
0%
#97128
b1101001 !
b1101010 "
b1101010 #
1%
#97328
b1101011 $
b1101011 )
0%
#97528
b1101011 "
b1101010 !
b1101011 #
1%
#97728
b1101100 $
b1101100 )
0%
#97928
b1101011 !
b1101100 "
b1101100 #
1%
#98128
b1101101 $
b1101101 )
0%
#98328
b1101101 "
b1101100 !
b1101101 #
1%
#98528
b1101110 $
b1101110 )
0%
#98728
b1101101 !
b1101110 "
b1101110 #
1%
#98928
b1101111 $
b1101111 )
0%
#99128
b1101111 "
b1101110 !
b1101111 #
1%
#99328
b1110000 $
b1110000 )
0%
#99528
b1101111 !
b1110000 "
b1110000 #
1%
#99728
b1110001 $
b1110001 )
0%
#99928
b1110001 "
b1110000 !
b1110001 #
1%
#100128
b1110010 $
b1110010 )
0%
#100328
b1110001 !
b1110010 "
b1110010 #
1%
#100528
b1110011 $
b1110011 )
0%
#100728
b1110011 "
b1110010 !
b1110011 #
1%
#100928
b1110100 $
b1110100 )
0%
#101128
b1110011 !
b1110100 "
b1110100 #
1%
#101328
b1110101 $
b1110101 )
0%
#101528
b1110101 "
b1110100 !
b1110101 #
1%
#101728
b1110110 $
b1110110 )
0%
#101928
b1110101 !
b1110110 "
b1110110 #
1%
#102128
b1110111 $
b1110111 )
0%
#102328
b1110111 "
b1110110 !
b1110111 #
1%
#102528
b1111000 $
b1111000 )
0%
#102728
b1110111 !
b1111000 "
b1111000 #
1%
#102928
b1111001 $
b1111001 )
0%
#103128
b1111001 "
b1111000 !
b1111001 #
1%
#103328
b1111010 $
b1111010 )
0%
#103528
b1111001 !
b1111010 "
b1111010 #
1%
#103728
b1111011 $
b1111011 )
0%
#103928
b1111011 "
b1111010 !
b1111011 #
1%
#104128
b1111100 $
b1111100 )
0%
#104328
b1111011 !
b1111100 "
b1111100 #
1%
#104528
b1111101 $
b1111101 )
0%
#104728
b1111101 "
b1111100 !
b1111101 #
1%
#104928
b1111110 $
b1111110 )
0%
#105128
b1111101 !
b1111110 "
b1111110 #
1%
#105328
b1111111 $
b1111111 )
0%
#105528
b1111111 "
b1111110 !
b1111111 #
1%
#105728
b0 )
0%
#105928
b1111111 !
b1 )
1%
#106128
b10 )
0%
#106328
b11 )
1%
#106528
b100 )
0%
#106728
b101 )
1%
#106928
b110 )
0%
#107128
b111 )
1%
#107328
b1000 )
0%
#107528
b1001 )
1%
#107728
b1010 )
0%
#107928
b1011 )
1%
#108128
b1100 )
0%
#108328
b1101 )
1%
#108528
b1110 )
0%
#108728
b1111 )
1%
#108928
b10000 )
0%
