lab2/SRAM.vcd
$date
	Tue Apr 19 17:07:48 2016
$end
$version
	Icarus Verilog
$end
$timescale
	1s
$end
$scope module sramTop $end
$scope module test $end
$var wire 16 ! data [15:0] $end
$var wire 16 " mdrSRAM [15:0] $end
$var wire 11 # sramAddr [10:0] $end
$var reg 11 $ addr [10:0] $end
$var reg 1 % clock $end
$var reg 1 & nOutput $end
$var reg 1 ' nWrite $end
$var reg 16 ( writeData [15:0] $end
$var integer 32 ) i [31:0] $end
$upscope $end
$upscope $end
$enddefinitions $end
#0
$dumpvars
b0 )
bx (
x'
x&
0%
bx $
bx #
bx "
bx !
$end
#200
b1 )
1%
#400
b10 )
0%
#600
b11 )
1%
#800
b100 )
0%
#1000
0'
1&
1%
#1001
b0 $
#1002
b0 !
b0 (
#1202
b0 )
0%
#1402
b0 "
b0 #
1%
#1604
b1 )
0%
#1804
1%
#1805
b1 !
b1 (
#1806
b1 $
#2006
b10 )
0%
#2206
b1 "
b1 #
1%
#2207
b10 !
b10 (
#2208
b10 $
#2408
b11 )
0%
#2608
b10 "
b10 #
1%
#2609
b11 !
b11 (
#2610
b11 $
#2810
b100 )
0%
#3010
b11 "
b11 #
1%
#3011
b100 !
b100 (
#3012
b100 $
#3212
b101 )
0%
#3412
b100 "
b100 #
1%
#3413
b101 !
b101 (
#3414
b101 $
#3614
b110 )
0%
#3814
b101 "
b101 #
1%
#3815
b110 !
b110 (
#3816
b110 $
#4016
b111 )
0%
#4216
b110 "
b110 #
1%
#4217
b111 !
b111 (
#4218
b111 $
#4418
b1000 )
0%
#4618
b111 "
b111 #
1%
#4619
b1000 !
b1000 (
#4620
b1000 $
#4820
b1001 )
0%
#5020
b1000 "
b1000 #
1%
#5021
b1001 !
b1001 (
#5022
b1001 $
#5222
b1010 )
0%
#5422
b1001 "
b1001 #
1%
#5423
b1010 !
b1010 (
#5424
b1010 $
#5624
b1011 )
0%
#5824
b1010 "
b1010 #
1%
#5825
b1011 !
b1011 (
#5826
b1011 $
#6026
b1100 )
0%
#6226
b1011 "
b1011 #
1%
#6227
b1100 !
b1100 (
#6228
b1100 $
#6428
b1101 )
0%
#6628
b1100 "
b1100 #
1%
#6629
b1101 !
b1101 (
#6630
b1101 $
#6830
b1110 )
0%
#7030
b1101 "
b1101 #
1%
#7031
b1110 !
b1110 (
#7032
b1110 $
#7232
b1111 )
0%
#7432
b1110 "
b1110 #
1%
#7433
b1111 !
b1111 (
#7434
b1111 $
#7634
b10000 )
0%
#7834
b1111 "
b1111 #
1%
#7835
b10000 !
b10000 (
#7836
b10000 $
#8036
b10001 )
0%
#8236
b10000 "
b10000 #
1%
#8237
b10001 !
b10001 (
#8238
b10001 $
#8438
b10010 )
0%
#8638
b10001 "
b10001 #
1%
#8639
b10010 !
b10010 (
#8640
b10010 $
#8840
b10011 )
0%
#9040
b10010 "
b10010 #
1%
#9041
b10011 !
b10011 (
#9042
b10011 $
#9242
b10100 )
0%
#9442
b10011 "
b10011 #
1%
#9443
b10100 !
b10100 (
#9444
b10100 $
#9644
b10101 )
0%
#9844
b10100 "
b10100 #
1%
#9845
b10101 !
b10101 (
#9846
b10101 $
#10046
b10110 )
0%
#10246
b10101 "
b10101 #
1%
#10247
b10110 !
b10110 (
#10248
b10110 $
#10448
b10111 )
0%
#10648
b10110 "
b10110 #
1%
#10649
b10111 !
b10111 (
#10650
b10111 $
#10850
b11000 )
0%
#11050
b10111 "
b10111 #
1%
#11051
b11000 !
b11000 (
#11052
b11000 $
#11252
b11001 )
0%
#11452
b11000 "
b11000 #
1%
#11453
b11001 !
b11001 (
#11454
b11001 $
#11654
b11010 )
0%
#11854
b11001 "
b11001 #
1%
#11855
b11010 !
b11010 (
#11856
b11010 $
#12056
b11011 )
0%
#12256
b11010 "
b11010 #
1%
#12257
b11011 !
b11011 (
#12258
b11011 $
#12458
b11100 )
0%
#12658
b11011 "
b11011 #
1%
#12659
b11100 !
b11100 (
#12660
b11100 $
#12860
b11101 )
0%
#13060
b11100 "
b11100 #
1%
#13061
b11101 !
b11101 (
#13062
b11101 $
#13262
b11110 )
0%
#13462
b11101 "
b11101 #
1%
#13463
b11110 !
b11110 (
#13464
b11110 $
#13664
b11111 )
0%
#13864
b11110 "
b11110 #
1%
#13865
b11111 !
b11111 (
#13866
b11111 $
#14066
b100000 )
0%
#14266
b11111 "
b11111 #
1%
#14267
b100000 !
b100000 (
#14268
b100000 $
#14468
b100001 )
0%
#14668
b100000 "
b100000 #
1%
#14669
b100001 !
b100001 (
#14670
b100001 $
#14870
b100010 )
0%
#15070
b100001 "
b100001 #
1%
#15071
b100010 !
b100010 (
#15072
b100010 $
#15272
b100011 )
0%
#15472
b100010 "
b100010 #
1%
#15473
b100011 !
b100011 (
#15474
b100011 $
#15674
b100100 )
0%
#15874
b100011 "
b100011 #
1%
#15875
b100100 !
b100100 (
#15876
b100100 $
#16076
b100101 )
0%
#16276
b100100 "
b100100 #
1%
#16277
b100101 !
b100101 (
#16278
b100101 $
#16478
b100110 )
0%
#16678
b100101 "
b100101 #
1%
#16679
b100110 !
b100110 (
#16680
b100110 $
#16880
b100111 )
0%
#17080
b100110 "
b100110 #
1%
#17081
b100111 !
b100111 (
#17082
b100111 $
#17282
b101000 )
0%
#17482
b100111 "
b100111 #
1%
#17483
b101000 !
b101000 (
#17484
b101000 $
#17684
b101001 )
0%
#17884
b101000 "
b101000 #
1%
#17885
b101001 !
b101001 (
#17886
b101001 $
#18086
b101010 )
0%
#18286
b101001 "
b101001 #
1%
#18287
b101010 !
b101010 (
#18288
b101010 $
#18488
b101011 )
0%
#18688
b101010 "
b101010 #
1%
#18689
b101011 !
b101011 (
#18690
b101011 $
#18890
b101100 )
0%
#19090
b101011 "
b101011 #
1%
#19091
b101100 !
b101100 (
#19092
b101100 $
#19292
b101101 )
0%
#19492
b101100 "
b101100 #
1%
#19493
b101101 !
b101101 (
#19494
b101101 $
#19694
b101110 )
0%
#19894
b101101 "
b101101 #
1%
#19895
b101110 !
b101110 (
#19896
b101110 $
#20096
b101111 )
0%
#20296
b101110 "
b101110 #
1%
#20297
b101111 !
b101111 (
#20298
b101111 $
#20498
b110000 )
0%
#20698
b101111 "
b101111 #
1%
#20699
b110000 !
b110000 (
#20700
b110000 $
#20900
b110001 )
0%
#21100
b110000 "
b110000 #
1%
#21101
b110001 !
b110001 (
#21102
b110001 $
#21302
b110010 )
0%
#21502
b110001 "
b110001 #
1%
#21503
b110010 !
b110010 (
#21504
b110010 $
#21704
b110011 )
0%
#21904
b110010 "
b110010 #
1%
#21905
b110011 !
b110011 (
#21906
b110011 $
#22106
b110100 )
0%
#22306
b110011 "
b110011 #
1%
#22307
b110100 !
b110100 (
#22308
b110100 $
#22508
b110101 )
0%
#22708
b110100 "
b110100 #
1%
#22709
b110101 !
b110101 (
#22710
b110101 $
#22910
b110110 )
0%
#23110
b110101 "
b110101 #
1%
#23111
b110110 !
b110110 (
#23112
b110110 $
#23312
b110111 )
0%
#23512
b110110 "
b110110 #
1%
#23513
b110111 !
b110111 (
#23514
b110111 $
#23714
b111000 )
0%
#23914
b110111 "
b110111 #
1%
#23915
b111000 !
b111000 (
#23916
b111000 $
#24116
b111001 )
0%
#24316
b111000 "
b111000 #
1%
#24317
b111001 !
b111001 (
#24318
b111001 $
#24518
b111010 )
0%
#24718
b111001 "
b111001 #
1%
#24719
b111010 !
b111010 (
#24720
b111010 $
#24920
b111011 )
0%
#25120
b111010 "
b111010 #
1%
#25121
b111011 !
b111011 (
#25122
b111011 $
#25322
b111100 )
0%
#25522
b111011 "
b111011 #
1%
#25523
b111100 !
b111100 (
#25524
b111100 $
#25724
b111101 )
0%
#25924
b111100 "
b111100 #
1%
#25925
b111101 !
b111101 (
#25926
b111101 $
#26126
b111110 )
0%
#26326
b111101 "
b111101 #
1%
#26327
b111110 !
b111110 (
#26328
b111110 $
#26528
b111111 )
0%
#26728
b111110 "
b111110 #
1%
#26729
b111111 !
b111111 (
#26730
b111111 $
#26930
b1000000 )
0%
#27130
b111111 "
b111111 #
1%
#27131
b1000000 !
b1000000 (
#27132
b1000000 $
#27332
b1000001 )
0%
#27532
b1000000 "
b1000000 #
1%
#27533
b1000001 !
b1000001 (
#27534
b1000001 $
#27734
b1000010 )
0%
#27934
b1000001 "
b1000001 #
1%
#27935
b1000010 !
b1000010 (
#27936
b1000010 $
#28136
b1000011 )
0%
#28336
b1000010 "
b1000010 #
1%
#28337
b1000011 !
b1000011 (
#28338
b1000011 $
#28538
b1000100 )
0%
#28738
b1000011 "
b1000011 #
1%
#28739
b1000100 !
b1000100 (
#28740
b1000100 $
#28940
b1000101 )
0%
#29140
b1000100 "
b1000100 #
1%
#29141
b1000101 !
b1000101 (
#29142
b1000101 $
#29342
b1000110 )
0%
#29542
b1000101 "
b1000101 #
1%
#29543
b1000110 !
b1000110 (
#29544
b1000110 $
#29744
b1000111 )
0%
#29944
b1000110 "
b1000110 #
1%
#29945
b1000111 !
b1000111 (
#29946
b1000111 $
#30146
b1001000 )
0%
#30346
b1000111 "
b1000111 #
1%
#30347
b1001000 !
b1001000 (
#30348
b1001000 $
#30548
b1001001 )
0%
#30748
b1001000 "
b1001000 #
1%
#30749
b1001001 !
b1001001 (
#30750
b1001001 $
#30950
b1001010 )
0%
#31150
b1001001 "
b1001001 #
1%
#31151
b1001010 !
b1001010 (
#31152
b1001010 $
#31352
b1001011 )
0%
#31552
b1001010 "
b1001010 #
1%
#31553
b1001011 !
b1001011 (
#31554
b1001011 $
#31754
b1001100 )
0%
#31954
b1001011 "
b1001011 #
1%
#31955
b1001100 !
b1001100 (
#31956
b1001100 $
#32156
b1001101 )
0%
#32356
b1001100 "
b1001100 #
1%
#32357
b1001101 !
b1001101 (
#32358
b1001101 $
#32558
b1001110 )
0%
#32758
b1001101 "
b1001101 #
1%
#32759
b1001110 !
b1001110 (
#32760
b1001110 $
#32960
b1001111 )
0%
#33160
b1001110 "
b1001110 #
1%
#33161
b1001111 !
b1001111 (
#33162
b1001111 $
#33362
b1010000 )
0%
#33562
b1001111 "
b1001111 #
1%
#33563
b1010000 !
b1010000 (
#33564
b1010000 $
#33764
b1010001 )
0%
#33964
b1010000 "
b1010000 #
1%
#33965
b1010001 !
b1010001 (
#33966
b1010001 $
#34166
b1010010 )
0%
#34366
b1010001 "
b1010001 #
1%
#34367
b1010010 !
b1010010 (
#34368
b1010010 $
#34568
b1010011 )
0%
#34768
b1010010 "
b1010010 #
1%
#34769
b1010011 !
b1010011 (
#34770
b1010011 $
#34970
b1010100 )
0%
#35170
b1010011 "
b1010011 #
1%
#35171
b1010100 !
b1010100 (
#35172
b1010100 $
#35372
b1010101 )
0%
#35572
b1010100 "
b1010100 #
1%
#35573
b1010101 !
b1010101 (
#35574
b1010101 $
#35774
b1010110 )
0%
#35974
b1010101 "
b1010101 #
1%
#35975
b1010110 !
b1010110 (
#35976
b1010110 $
#36176
b1010111 )
0%
#36376
b1010110 "
b1010110 #
1%
#36377
b1010111 !
b1010111 (
#36378
b1010111 $
#36578
b1011000 )
0%
#36778
b1010111 "
b1010111 #
1%
#36779
b1011000 !
b1011000 (
#36780
b1011000 $
#36980
b1011001 )
0%
#37180
b1011000 "
b1011000 #
1%
#37181
b1011001 !
b1011001 (
#37182
b1011001 $
#37382
b1011010 )
0%
#37582
b1011001 "
b1011001 #
1%
#37583
b1011010 !
b1011010 (
#37584
b1011010 $
#37784
b1011011 )
0%
#37984
b1011010 "
b1011010 #
1%
#37985
b1011011 !
b1011011 (
#37986
b1011011 $
#38186
b1011100 )
0%
#38386
b1011011 "
b1011011 #
1%
#38387
b1011100 !
b1011100 (
#38388
b1011100 $
#38588
b1011101 )
0%
#38788
b1011100 "
b1011100 #
1%
#38789
b1011101 !
b1011101 (
#38790
b1011101 $
#38990
b1011110 )
0%
#39190
b1011101 "
b1011101 #
1%
#39191
b1011110 !
b1011110 (
#39192
b1011110 $
#39392
b1011111 )
0%
#39592
b1011110 "
b1011110 #
1%
#39593
b1011111 !
b1011111 (
#39594
b1011111 $
#39794
b1100000 )
0%
#39994
b1011111 "
b1011111 #
1%
#39995
b1100000 !
b1100000 (
#39996
b1100000 $
#40196
b1100001 )
0%
#40396
b1100000 "
b1100000 #
1%
#40397
b1100001 !
b1100001 (
#40398
b1100001 $
#40598
b1100010 )
0%
#40798
b1100001 "
b1100001 #
1%
#40799
b1100010 !
b1100010 (
#40800
b1100010 $
#41000
b1100011 )
0%
#41200
b1100010 "
b1100010 #
1%
#41201
b1100011 !
b1100011 (
#41202
b1100011 $
#41402
b1100100 )
0%
#41602
b1100011 "
b1100011 #
1%
#41603
b1100100 !
b1100100 (
#41604
b1100100 $
#41804
b1100101 )
0%
#42004
b1100100 "
b1100100 #
1%
#42005
b1100101 !
b1100101 (
#42006
b1100101 $
#42206
b1100110 )
0%
#42406
b1100101 "
b1100101 #
1%
#42407
b1100110 !
b1100110 (
#42408
b1100110 $
#42608
b1100111 )
0%
#42808
b1100110 "
b1100110 #
1%
#42809
b1100111 !
b1100111 (
#42810
b1100111 $
#43010
b1101000 )
0%
#43210
b1100111 "
b1100111 #
1%
#43211
b1101000 !
b1101000 (
#43212
b1101000 $
#43412
b1101001 )
0%
#43612
b1101000 "
b1101000 #
1%
#43613
b1101001 !
b1101001 (
#43614
b1101001 $
#43814
b1101010 )
0%
#44014
b1101001 "
b1101001 #
1%
#44015
b1101010 !
b1101010 (
#44016
b1101010 $
#44216
b1101011 )
0%
#44416
b1101010 "
b1101010 #
1%
#44417
b1101011 !
b1101011 (
#44418
b1101011 $
#44618
b1101100 )
0%
#44818
b1101011 "
b1101011 #
1%
#44819
b1101100 !
b1101100 (
#44820
b1101100 $
#45020
b1101101 )
0%
#45220
b1101100 "
b1101100 #
1%
#45221
b1101101 !
b1101101 (
#45222
b1101101 $
#45422
b1101110 )
0%
#45622
b1101101 "
b1101101 #
1%
#45623
b1101110 !
b1101110 (
#45624
b1101110 $
#45824
b1101111 )
0%
#46024
b1101110 "
b1101110 #
1%
#46025
b1101111 !
b1101111 (
#46026
b1101111 $
#46226
b1110000 )
0%
#46426
b1101111 "
b1101111 #
1%
#46427
b1110000 !
b1110000 (
#46428
b1110000 $
#46628
b1110001 )
0%
#46828
b1110000 "
b1110000 #
1%
#46829
b1110001 !
b1110001 (
#46830
b1110001 $
#47030
b1110010 )
0%
#47230
b1110001 "
b1110001 #
1%
#47231
b1110010 !
b1110010 (
#47232
b1110010 $
#47432
b1110011 )
0%
#47632
b1110010 "
b1110010 #
1%
#47633
b1110011 !
b1110011 (
#47634
b1110011 $
#47834
b1110100 )
0%
#48034
b1110011 "
b1110011 #
1%
#48035
b1110100 !
b1110100 (
#48036
b1110100 $
#48236
b1110101 )
0%
#48436
b1110100 "
b1110100 #
1%
#48437
b1110101 !
b1110101 (
#48438
b1110101 $
#48638
b1110110 )
0%
#48838
b1110101 "
b1110101 #
1%
#48839
b1110110 !
b1110110 (
#48840
b1110110 $
#49040
b1110111 )
0%
#49240
b1110110 "
b1110110 #
1%
#49241
b1110111 !
b1110111 (
#49242
b1110111 $
#49442
b1111000 )
0%
#49642
b1110111 "
b1110111 #
1%
#49643
b1111000 !
b1111000 (
#49644
b1111000 $
#49844
b1111001 )
0%
#50044
b1111000 "
b1111000 #
1%
#50045
b1111001 !
b1111001 (
#50046
b1111001 $
#50246
b1111010 )
0%
#50446
b1111001 "
b1111001 #
1%
#50447
b1111010 !
b1111010 (
#50448
b1111010 $
#50648
b1111011 )
0%
#50848
b1111010 "
b1111010 #
1%
#50849
b1111011 !
b1111011 (
#50850
b1111011 $
#51050
b1111100 )
0%
#51250
b1111011 "
b1111011 #
1%
#51251
b1111100 !
b1111100 (
#51252
b1111100 $
#51452
b1111101 )
0%
#51652
b1111100 "
b1111100 #
1%
#51653
b1111101 !
b1111101 (
#51654
b1111101 $
#51854
b1111110 )
0%
#52054
b1111101 "
b1111101 #
1%
#52055
b1111110 !
b1111110 (
#52056
b1111110 $
#52256
b1111111 )
0%
#52456
b1111110 "
b1111110 #
1%
#52457
b1111111 !
b1111111 (
#52458
b1111111 $
#52658
b0 )
0%
#52858
b1111111 "
b1111111 #
b1 )
1%
#53058
b10 )
0%
#53258
b11 )
1%
#53458
b1111111 "
b1111111 !
1'
0&
b0 )
0%
#53658
1%
#53659
b0 $
#53859
b1 )
0%
#54059
b0 "
b0 #
1%
#54060
b1 $
#54260
b10 )
0%
#54460
b1 "
b0 !
b1 #
1%
#54461
b10 $
#54661
b11 )
0%
#54861
b1 !
b10 "
b10 #
1%
#54862
b11 $
#55062
b100 )
0%
#55262
b11 "
b10 !
b11 #
1%
#55263
b100 $
#55463
b101 )
0%
#55663
b11 !
b100 "
b100 #
1%
#55664
b101 $
#55864
b110 )
0%
#56064
b101 "
b100 !
b101 #
1%
#56065
b110 $
#56265
b111 )
0%
#56465
b101 !
b110 "
b110 #
1%
#56466
b111 $
#56666
b1000 )
0%
#56866
b111 "
b110 !
b111 #
1%
#56867
b1000 $
#57067
b1001 )
0%
#57267
b111 !
b1000 "
b1000 #
1%
#57268
b1001 $
#57468
b1010 )
0%
#57668
b1001 "
b1000 !
b1001 #
1%
#57669
b1010 $
#57869
b1011 )
0%
#58069
b1001 !
b1010 "
b1010 #
1%
#58070
b1011 $
#58270
b1100 )
0%
#58470
b1011 "
b1010 !
b1011 #
1%
#58471
b1100 $
#58671
b1101 )
0%
#58871
b1011 !
b1100 "
b1100 #
1%
#58872
b1101 $
#59072
b1110 )
0%
#59272
b1101 "
b1100 !
b1101 #
1%
#59273
b1110 $
#59473
b1111 )
0%
#59673
b1101 !
b1110 "
b1110 #
1%
#59674
b1111 $
#59874
b10000 )
0%
#60074
b1111 "
b1110 !
b1111 #
1%
#60075
b10000 $
#60275
b10001 )
0%
#60475
b1111 !
b10000 "
b10000 #
1%
#60476
b10001 $
#60676
b10010 )
0%
#60876
b10001 "
b10000 !
b10001 #
1%
#60877
b10010 $
#61077
b10011 )
0%
#61277
b10001 !
b10010 "
b10010 #
1%
#61278
b10011 $
#61478
b10100 )
0%
#61678
b10011 "
b10010 !
b10011 #
1%
#61679
b10100 $
#61879
b10101 )
0%
#62079
b10011 !
b10100 "
b10100 #
1%
#62080
b10101 $
#62280
b10110 )
0%
#62480
b10101 "
b10100 !
b10101 #
1%
#62481
b10110 $
#62681
b10111 )
0%
#62881
b10101 !
b10110 "
b10110 #
1%
#62882
b10111 $
#63082
b11000 )
0%
#63282
b10111 "
b10110 !
b10111 #
1%
#63283
b11000 $
#63483
b11001 )
0%
#63683
b10111 !
b11000 "
b11000 #
1%
#63684
b11001 $
#63884
b11010 )
0%
#64084
b11001 "
b11000 !
b11001 #
1%
#64085
b11010 $
#64285
b11011 )
0%
#64485
b11001 !
b11010 "
b11010 #
1%
#64486
b11011 $
#64686
b11100 )
0%
#64886
b11011 "
b11010 !
b11011 #
1%
#64887
b11100 $
#65087
b11101 )
0%
#65287
b11011 !
b11100 "
b11100 #
1%
#65288
b11101 $
#65488
b11110 )
0%
#65688
b11101 "
b11100 !
b11101 #
1%
#65689
b11110 $
#65889
b11111 )
0%
#66089
b11101 !
b11110 "
b11110 #
1%
#66090
b11111 $
#66290
b100000 )
0%
#66490
b11111 "
b11110 !
b11111 #
1%
#66491
b100000 $
#66691
b100001 )
0%
#66891
b11111 !
b100000 "
b100000 #
1%
#66892
b100001 $
#67092
b100010 )
0%
#67292
b100001 "
b100000 !
b100001 #
1%
#67293
b100010 $
#67493
b100011 )
0%
#67693
b100001 !
b100010 "
b100010 #
1%
#67694
b100011 $
#67894
b100100 )
0%
#68094
b100011 "
b100010 !
b100011 #
1%
#68095
b100100 $
#68295
b100101 )
0%
#68495
b100011 !
b100100 "
b100100 #
1%
#68496
b100101 $
#68696
b100110 )
0%
#68896
b100101 "
b100100 !
b100101 #
1%
#68897
b100110 $
#69097
b100111 )
0%
#69297
b100101 !
b100110 "
b100110 #
1%
#69298
b100111 $
#69498
b101000 )
0%
#69698
b100111 "
b100110 !
b100111 #
1%
#69699
b101000 $
#69899
b101001 )
0%
#70099
b100111 !
b101000 "
b101000 #
1%
#70100
b101001 $
#70300
b101010 )
0%
#70500
b101001 "
b101000 !
b101001 #
1%
#70501
b101010 $
#70701
b101011 )
0%
#70901
b101001 !
b101010 "
b101010 #
1%
#70902
b101011 $
#71102
b101100 )
0%
#71302
b101011 "
b101010 !
b101011 #
1%
#71303
b101100 $
#71503
b101101 )
0%
#71703
b101011 !
b101100 "
b101100 #
1%
#71704
b101101 $
#71904
b101110 )
0%
#72104
b101101 "
b101100 !
b101101 #
1%
#72105
b101110 $
#72305
b101111 )
0%
#72505
b101101 !
b101110 "
b101110 #
1%
#72506
b101111 $
#72706
b110000 )
0%
#72906
b101111 "
b101110 !
b101111 #
1%
#72907
b110000 $
#73107
b110001 )
0%
#73307
b101111 !
b110000 "
b110000 #
1%
#73308
b110001 $
#73508
b110010 )
0%
#73708
b110001 "
b110000 !
b110001 #
1%
#73709
b110010 $
#73909
b110011 )
0%
#74109
b110001 !
b110010 "
b110010 #
1%
#74110
b110011 $
#74310
b110100 )
0%
#74510
b110011 "
b110010 !
b110011 #
1%
#74511
b110100 $
#74711
b110101 )
0%
#74911
b110011 !
b110100 "
b110100 #
1%
#74912
b110101 $
#75112
b110110 )
0%
#75312
b110101 "
b110100 !
b110101 #
1%
#75313
b110110 $
#75513
b110111 )
0%
#75713
b110101 !
b110110 "
b110110 #
1%
#75714
b110111 $
#75914
b111000 )
0%
#76114
b110111 "
b110110 !
b110111 #
1%
#76115
b111000 $
#76315
b111001 )
0%
#76515
b110111 !
b111000 "
b111000 #
1%
#76516
b111001 $
#76716
b111010 )
0%
#76916
b111001 "
b111000 !
b111001 #
1%
#76917
b111010 $
#77117
b111011 )
0%
#77317
b111001 !
b111010 "
b111010 #
1%
#77318
b111011 $
#77518
b111100 )
0%
#77718
b111011 "
b111010 !
b111011 #
1%
#77719
b111100 $
#77919
b111101 )
0%
#78119
b111011 !
b111100 "
b111100 #
1%
#78120
b111101 $
#78320
b111110 )
0%
#78520
b111101 "
b111100 !
b111101 #
1%
#78521
b111110 $
#78721
b111111 )
0%
#78921
b111101 !
b111110 "
b111110 #
1%
#78922
b111111 $
#79122
b1000000 )
0%
#79322
b111111 "
b111110 !
b111111 #
1%
#79323
b1000000 $
#79523
b1000001 )
0%
#79723
b111111 !
b1000000 "
b1000000 #
1%
#79724
b1000001 $
#79924
b1000010 )
0%
#80124
b1000001 "
b1000000 !
b1000001 #
1%
#80125
b1000010 $
#80325
b1000011 )
0%
#80525
b1000001 !
b1000010 "
b1000010 #
1%
#80526
b1000011 $
#80726
b1000100 )
0%
#80926
b1000011 "
b1000010 !
b1000011 #
1%
#80927
b1000100 $
#81127
b1000101 )
0%
#81327
b1000011 !
b1000100 "
b1000100 #
1%
#81328
b1000101 $
#81528
b1000110 )
0%
#81728
b1000101 "
b1000100 !
b1000101 #
1%
#81729
b1000110 $
#81929
b1000111 )
0%
#82129
b1000101 !
b1000110 "
b1000110 #
1%
#82130
b1000111 $
#82330
b1001000 )
0%
#82530
b1000111 "
b1000110 !
b1000111 #
1%
#82531
b1001000 $
#82731
b1001001 )
0%
#82931
b1000111 !
b1001000 "
b1001000 #
1%
#82932
b1001001 $
#83132
b1001010 )
0%
#83332
b1001001 "
b1001000 !
b1001001 #
1%
#83333
b1001010 $
#83533
b1001011 )
0%
#83733
b1001001 !
b1001010 "
b1001010 #
1%
#83734
b1001011 $
#83934
b1001100 )
0%
#84134
b1001011 "
b1001010 !
b1001011 #
1%
#84135
b1001100 $
#84335
b1001101 )
0%
#84535
b1001011 !
b1001100 "
b1001100 #
1%
#84536
b1001101 $
#84736
b1001110 )
0%
#84936
b1001101 "
b1001100 !
b1001101 #
1%
#84937
b1001110 $
#85137
b1001111 )
0%
#85337
b1001101 !
b1001110 "
b1001110 #
1%
#85338
b1001111 $
#85538
b1010000 )
0%
#85738
b1001111 "
b1001110 !
b1001111 #
1%
#85739
b1010000 $
#85939
b1010001 )
0%
#86139
b1001111 !
b1010000 "
b1010000 #
1%
#86140
b1010001 $
#86340
b1010010 )
0%
#86540
b1010001 "
b1010000 !
b1010001 #
1%
#86541
b1010010 $
#86741
b1010011 )
0%
#86941
b1010001 !
b1010010 "
b1010010 #
1%
#86942
b1010011 $
#87142
b1010100 )
0%
#87342
b1010011 "
b1010010 !
b1010011 #
1%
#87343
b1010100 $
#87543
b1010101 )
0%
#87743
b1010011 !
b1010100 "
b1010100 #
1%
#87744
b1010101 $
#87944
b1010110 )
0%
#88144
b1010101 "
b1010100 !
b1010101 #
1%
#88145
b1010110 $
#88345
b1010111 )
0%
#88545
b1010101 !
b1010110 "
b1010110 #
1%
#88546
b1010111 $
#88746
b1011000 )
0%
#88946
b1010111 "
b1010110 !
b1010111 #
1%
#88947
b1011000 $
#89147
b1011001 )
0%
#89347
b1010111 !
b1011000 "
b1011000 #
1%
#89348
b1011001 $
#89548
b1011010 )
0%
#89748
b1011001 "
b1011000 !
b1011001 #
1%
#89749
b1011010 $
#89949
b1011011 )
0%
#90149
b1011001 !
b1011010 "
b1011010 #
1%
#90150
b1011011 $
#90350
b1011100 )
0%
#90550
b1011011 "
b1011010 !
b1011011 #
1%
#90551
b1011100 $
#90751
b1011101 )
0%
#90951
b1011011 !
b1011100 "
b1011100 #
1%
#90952
b1011101 $
#91152
b1011110 )
0%
#91352
b1011101 "
b1011100 !
b1011101 #
1%
#91353
b1011110 $
#91553
b1011111 )
0%
#91753
b1011101 !
b1011110 "
b1011110 #
1%
#91754
b1011111 $
#91954
b1100000 )
0%
#92154
b1011111 "
b1011110 !
b1011111 #
1%
#92155
b1100000 $
#92355
b1100001 )
0%
#92555
b1011111 !
b1100000 "
b1100000 #
1%
#92556
b1100001 $
#92756
b1100010 )
0%
#92956
b1100001 "
b1100000 !
b1100001 #
1%
#92957
b1100010 $
#93157
b1100011 )
0%
#93357
b1100001 !
b1100010 "
b1100010 #
1%
#93358
b1100011 $
#93558
b1100100 )
0%
#93758
b1100011 "
b1100010 !
b1100011 #
1%
#93759
b1100100 $
#93959
b1100101 )
0%
#94159
b1100011 !
b1100100 "
b1100100 #
1%
#94160
b1100101 $
#94360
b1100110 )
0%
#94560
b1100101 "
b1100100 !
b1100101 #
1%
#94561
b1100110 $
#94761
b1100111 )
0%
#94961
b1100101 !
b1100110 "
b1100110 #
1%
#94962
b1100111 $
#95162
b1101000 )
0%
#95362
b1100111 "
b1100110 !
b1100111 #
1%
#95363
b1101000 $
#95563
b1101001 )
0%
#95763
b1100111 !
b1101000 "
b1101000 #
1%
#95764
b1101001 $
#95964
b1101010 )
0%
#96164
b1101001 "
b1101000 !
b1101001 #
1%
#96165
b1101010 $
#96365
b1101011 )
0%
#96565
b1101001 !
b1101010 "
b1101010 #
1%
#96566
b1101011 $
#96766
b1101100 )
0%
#96966
b1101011 "
b1101010 !
b1101011 #
1%
#96967
b1101100 $
#97167
b1101101 )
0%
#97367
b1101011 !
b1101100 "
b1101100 #
1%
#97368
b1101101 $
#97568
b1101110 )
0%
#97768
b1101101 "
b1101100 !
b1101101 #
1%
#97769
b1101110 $
#97969
b1101111 )
0%
#98169
b1101101 !
b1101110 "
b1101110 #
1%
#98170
b1101111 $
#98370
b1110000 )
0%
#98570
b1101111 "
b1101110 !
b1101111 #
1%
#98571
b1110000 $
#98771
b1110001 )
0%
#98971
b1101111 !
b1110000 "
b1110000 #
1%
#98972
b1110001 $
#99172
b1110010 )
0%
#99372
b1110001 "
b1110000 !
b1110001 #
1%
#99373
b1110010 $
#99573
b1110011 )
0%
#99773
b1110001 !
b1110010 "
b1110010 #
1%
#99774
b1110011 $
#99974
b1110100 )
0%
#100174
b1110011 "
b1110010 !
b1110011 #
1%
#100175
b1110100 $
#100375
b1110101 )
0%
#100575
b1110011 !
b1110100 "
b1110100 #
1%
#100576
b1110101 $
#100776
b1110110 )
0%
#100976
b1110101 "
b1110100 !
b1110101 #
1%
#100977
b1110110 $
#101177
b1110111 )
0%
#101377
b1110101 !
b1110110 "
b1110110 #
1%
#101378
b1110111 $
#101578
b1111000 )
0%
#101778
b1110111 "
b1110110 !
b1110111 #
1%
#101779
b1111000 $
#101979
b1111001 )
0%
#102179
b1110111 !
b1111000 "
b1111000 #
1%
#102180
b1111001 $
#102380
b1111010 )
0%
#102580
b1111001 "
b1111000 !
b1111001 #
1%
#102581
b1111010 $
#102781
b1111011 )
0%
#102981
b1111001 !
b1111010 "
b1111010 #
1%
#102982
b1111011 $
#103182
b1111100 )
0%
#103382
b1111011 "
b1111010 !
b1111011 #
1%
#103383
b1111100 $
#103583
b1111101 )
0%
#103783
b1111011 !
b1111100 "
b1111100 #
1%
#103784
b1111101 $
#103984
b1111110 )
0%
#104184
b1111101 "
b1111100 !
b1111101 #
1%
#104185
b1111110 $
#104385
b1111111 )
0%
#104585
b1111101 !
b1111110 "
b1111110 #
1%
#104586
b1111111 $
#104786
b0 )
0%
#104986
b1111111 "
b1111110 !
b1111111 #
b1 )
1%
#105186
b10 )
0%
#105386
b1111111 !
b11 )
1%
#105586
b100 )
0%
#105786
b101 )
1%
#105986
b110 )
0%
#106186
b111 )
1%
#106386
b1000 )
0%
#106586
b1001 )
1%
#106786
b1010 )
0%
#106986
b1011 )
1%
#107186
b1100 )
0%
#107386
b1101 )
1%
#107586
b1110 )
0%
#107786
b1111 )
1%
#107986
b10000 )
0%
